test_uut.vcd
$date
    Sat Aug  4 12:42:26 2018
$end
$version
    MyHDL 0.10
$end
$timescale
    1ns
$end

$scope module test_uut $end
$var reg 1 ! c $end
$var reg 8 " l $end
$var reg 8 " leds $end
$var reg 1 ! clock $end
$scope module shift0 $end
$var reg 1 # ltr $end
$var reg 8 " led $end
$var reg 1 ! clock $end
$var reg 3 $ clk_cnt $end
$var reg 1 % strobe $end
$var reg 8 & led_mem $end
$upscope $end
$scope module ClkDriver0 $end
$var reg 1 ! clk $end
$upscope $end
$upscope $end

$enddefinitions $end
$dumpvars
0!
b00000000 "
1#
b000 $
0%
b00000001 &
$end
b00000001 "
#5
1!
b001 $
#10
0!
#15
1!
b010 $
#20
0!
#25
1!
b011 $
#30
0!
#35
1!
b100 $
#40
0!
#45
1!
b000 $
b00000010 &
b00000010 "
#50
0!
#55
1!
b001 $
#60
0!
#65
1!
b010 $
#70
0!
#75
1!
b011 $
#80
0!
#85
1!
b100 $
#90
0!
#95
1!
b000 $
b00000100 &
b00000100 "
#100
0!
#105
1!
b001 $
#110
0!
#115
1!
b010 $
#120
0!
#125
1!
b011 $
#130
0!
#135
1!
b100 $
#140
0!
#145
1!
b000 $
b00001000 &
b00001000 "
#150
0!
#155
1!
b001 $
#160
0!
#165
1!
b010 $
#170
0!
#175
1!
b011 $
#180
0!
#185
1!
b100 $
#190
0!
#195
1!
b000 $
b00010000 &
b00010000 "
#200
0!
#205
1!
b001 $
#210
0!
#215
1!
b010 $
#220
0!
#225
1!
b011 $
#230
0!
#235
1!
b100 $
#240
0!
#245
1!
b000 $
b00100000 &
b00100000 "
#250
0!
#255
1!
b001 $
#260
0!
#265
1!
b010 $
#270
0!
#275
1!
b011 $
#280
0!
#285
1!
b100 $
#290
0!
#295
1!
b000 $
b01000000 &
b01000000 "
#300
0!
#305
1!
b001 $
#310
0!
#315
1!
b010 $
#320
0!
#325
1!
b011 $
#330
0!
#335
1!
b100 $
#340
0!
#345
1!
b000 $
b10000000 &
0#
b10000000 "
#350
0!
#355
1!
b001 $
#360
0!
#365
1!
b010 $
#370
0!
#375
1!
b011 $
#380
0!
#385
1!
b100 $
#390
0!
#395
1!
b000 $
b01000000 &
b01000000 "
#400
0!
#405
1!
b001 $
#410
0!
#415
1!
b010 $
#420
0!
#425
1!
b011 $
#430
0!
#435
1!
b100 $
#440
0!
#445
1!
b000 $
b00100000 &
b00100000 "
#450
0!
#455
1!
b001 $
#460
0!
#465
1!
b010 $
#470
0!
#475
1!
b011 $
#480
0!
#485
1!
b100 $
#490
0!
#495
1!
b000 $
b00010000 &
b00010000 "
#500
0!
#505
1!
b001 $
#510
0!
#515
1!
b010 $
#520
0!
#525
1!
b011 $
#530
0!
#535
1!
b100 $
#540
0!
#545
1!
b000 $
b00001000 &
b00001000 "
#550
0!
#555
1!
b001 $
#560
0!
#565
1!
b010 $
#570
0!
#575
1!
b011 $
#580
0!
#585
1!
b100 $
#590
0!
#595
1!
b000 $
b00000100 &
b00000100 "
#600
0!
#605
1!
b001 $
#610
0!
#615
1!
b010 $
#620
0!
#625
1!
b011 $
#630
0!
#635
1!
b100 $
#640
0!
#645
1!
b000 $
b00000010 &
b00000010 "
#650
0!
#655
1!
b001 $
#660
0!
#665
1!
b010 $
#670
0!
#675
1!
b011 $
#680
0!
#685
1!
b100 $
#690
0!
#695
1!
b000 $
b00000001 &
1#
b00000001 "
#700
0!
#705
1!
b001 $
#710
0!
#715
1!
b010 $
#720
0!
#725
1!
b011 $
#730
0!
#735
1!
b100 $
#740
0!
#745
1!
b000 $
b00000010 &
b00000010 "
#750
0!
#755
1!
b001 $
#760
0!
#765
1!
b010 $
#770
0!
#775
1!
b011 $
#780
0!
#785
1!
b100 $
#790
0!
#795
1!
b000 $
b00000100 &
b00000100 "
#800
0!
#805
1!
b001 $
#810
0!
#815
1!
b010 $
#820
0!
#825
1!
b011 $
#830
0!
#835
1!
b100 $
#840
0!
#845
1!
b000 $
b00001000 &
b00001000 "
#850
0!
#855
1!
b001 $
#860
0!
#865
1!
b010 $
#870
0!
#875
1!
b011 $
#880
0!
#885
1!
b100 $
#890
0!
#895
1!
b000 $
b00010000 &
b00010000 "
#900
0!
#905
1!
b001 $
#910
0!
#915
1!
b010 $
#920
0!
#925
1!
b011 $
#930
0!
#935
1!
b100 $
#940
0!
#945
1!
b000 $
b00100000 &
b00100000 "
#950
0!
#955
1!
b001 $
#960
0!
#965
1!
b010 $
#970
0!
#975
1!
b011 $
#980
0!
#985
1!
b100 $
#990
0!
#995
1!
b000 $
b01000000 &
b01000000 "
