test_uut.1533379273.8.vcd
$date
    Sat Aug  4 12:41:13 2018
$end
$version
    MyHDL 0.10
$end
$timescale
    1ns
$end

$scope module test_uut $end
$var reg 1 ! c $end
$var reg 8 " l $end
$var reg 8 " leds $end
$var reg 1 ! clock $end
$scope module shift0 $end
$var reg 1 # ltr $end
$var reg 8 " led $end
$var reg 1 ! clock $end
$var reg 23 $ clk_cnt $end
$var reg 1 % strobe $end
$var reg 8 & led_mem $end
$upscope $end
$scope module ClkDriver0 $end
$var reg 1 ! clk $end
$upscope $end
$upscope $end

$enddefinitions $end
$dumpvars
0!
b00000000 "
1#
b00000000000000000000000 $
0%
b00000001 &
$end
b00000001 "
#5
1!
b00000000000000000000001 $
#10
0!
#15
1!
b00000000000000000000010 $
#20
0!
#25
1!
b00000000000000000000011 $
#30
0!
#35
1!
b00000000000000000000100 $
#40
0!
#45
1!
b00000000000000000000101 $
#50
0!
#55
1!
b00000000000000000000110 $
#60
0!
#65
1!
b00000000000000000000111 $
#70
0!
#75
1!
b00000000000000000001000 $
#80
0!
#85
1!
b00000000000000000001001 $
#90
0!
#95
1!
b00000000000000000001010 $
#100
0!
#105
1!
b00000000000000000001011 $
#110
0!
#115
1!
b00000000000000000001100 $
#120
0!
#125
1!
b00000000000000000001101 $
#130
0!
#135
1!
b00000000000000000001110 $
#140
0!
#145
1!
b00000000000000000001111 $
#150
0!
#155
1!
b00000000000000000010000 $
#160
0!
#165
1!
b00000000000000000010001 $
#170
0!
#175
1!
b00000000000000000010010 $
#180
0!
#185
1!
b00000000000000000010011 $
#190
0!
#195
1!
b00000000000000000010100 $
#200
0!
#205
1!
b00000000000000000010101 $
#210
0!
#215
1!
b00000000000000000010110 $
#220
0!
#225
1!
b00000000000000000010111 $
#230
0!
#235
1!
b00000000000000000011000 $
#240
0!
#245
1!
b00000000000000000011001 $
#250
0!
#255
1!
b00000000000000000011010 $
#260
0!
#265
1!
b00000000000000000011011 $
#270
0!
#275
1!
b00000000000000000011100 $
#280
0!
#285
1!
b00000000000000000011101 $
#290
0!
#295
1!
b00000000000000000011110 $
#300
0!
#305
1!
b00000000000000000011111 $
#310
0!
#315
1!
b00000000000000000100000 $
#320
0!
#325
1!
b00000000000000000100001 $
#330
0!
#335
1!
b00000000000000000100010 $
#340
0!
#345
1!
b00000000000000000100011 $
#350
0!
#355
1!
b00000000000000000100100 $
#360
0!
#365
1!
b00000000000000000100101 $
#370
0!
#375
1!
b00000000000000000100110 $
#380
0!
#385
1!
b00000000000000000100111 $
#390
0!
#395
1!
b00000000000000000101000 $
#400
0!
#405
1!
b00000000000000000101001 $
#410
0!
#415
1!
b00000000000000000101010 $
#420
0!
#425
1!
b00000000000000000101011 $
#430
0!
#435
1!
b00000000000000000101100 $
#440
0!
#445
1!
b00000000000000000101101 $
#450
0!
#455
1!
b00000000000000000101110 $
#460
0!
#465
1!
b00000000000000000101111 $
#470
0!
#475
1!
b00000000000000000110000 $
#480
0!
#485
1!
b00000000000000000110001 $
#490
0!
#495
1!
b00000000000000000110010 $
#500
0!
#505
1!
b00000000000000000110011 $
#510
0!
#515
1!
b00000000000000000110100 $
#520
0!
#525
1!
b00000000000000000110101 $
#530
0!
#535
1!
b00000000000000000110110 $
#540
0!
#545
1!
b00000000000000000110111 $
#550
0!
#555
1!
b00000000000000000111000 $
#560
0!
#565
1!
b00000000000000000111001 $
#570
0!
#575
1!
b00000000000000000111010 $
#580
0!
#585
1!
b00000000000000000111011 $
#590
0!
#595
1!
b00000000000000000111100 $
#600
0!
#605
1!
b00000000000000000111101 $
#610
0!
#615
1!
b00000000000000000111110 $
#620
0!
#625
1!
b00000000000000000111111 $
#630
0!
#635
1!
b00000000000000001000000 $
#640
0!
#645
1!
b00000000000000001000001 $
#650
0!
#655
1!
b00000000000000001000010 $
#660
0!
#665
1!
b00000000000000001000011 $
#670
0!
#675
1!
b00000000000000001000100 $
#680
0!
#685
1!
b00000000000000001000101 $
#690
0!
#695
1!
b00000000000000001000110 $
#700
0!
#705
1!
b00000000000000001000111 $
#710
0!
#715
1!
b00000000000000001001000 $
#720
0!
#725
1!
b00000000000000001001001 $
#730
0!
#735
1!
b00000000000000001001010 $
#740
0!
#745
1!
b00000000000000001001011 $
#750
0!
#755
1!
b00000000000000001001100 $
#760
0!
#765
1!
b00000000000000001001101 $
#770
0!
#775
1!
b00000000000000001001110 $
#780
0!
#785
1!
b00000000000000001001111 $
#790
0!
#795
1!
b00000000000000001010000 $
#800
0!
#805
1!
b00000000000000001010001 $
#810
0!
#815
1!
b00000000000000001010010 $
#820
0!
#825
1!
b00000000000000001010011 $
#830
0!
#835
1!
b00000000000000001010100 $
#840
0!
#845
1!
b00000000000000001010101 $
#850
0!
#855
1!
b00000000000000001010110 $
#860
0!
#865
1!
b00000000000000001010111 $
#870
0!
#875
1!
b00000000000000001011000 $
#880
0!
#885
1!
b00000000000000001011001 $
#890
0!
#895
1!
b00000000000000001011010 $
#900
0!
#905
1!
b00000000000000001011011 $
#910
0!
#915
1!
b00000000000000001011100 $
#920
0!
#925
1!
b00000000000000001011101 $
#930
0!
#935
1!
b00000000000000001011110 $
#940
0!
#945
1!
b00000000000000001011111 $
#950
0!
#955
1!
b00000000000000001100000 $
#960
0!
#965
1!
b00000000000000001100001 $
#970
0!
#975
1!
b00000000000000001100010 $
#980
0!
#985
1!
b00000000000000001100011 $
#990
0!
#995
1!
b00000000000000001100100 $
